{
  "project_info": {
    "project_number": "852659735947",
    "firebase_url": "https://weatherforecast-70e55.firebaseio.com",
    "project_id": "weatherforecast-70e55",
    "storage_bucket": "weatherforecast-70e55.appspot.com"
  },
  "client": [
    {
      "client_info": {
        "mobilesdk_app_id": "1:852659735947:android:ded92c363706fd86",
        "android_client_info": {
          "package_name": "in.mobileappdev.weatherforecast"
        }
      },
      "oauth_client": [
        {
          "client_id": "852659735947-go94clscumpb5lhovklit7a0blt5nioe.apps.googleusercontent.com",
          "client_type": 1,
          "android_info": {
            "package_name": "in.mobileappdev.weatherforecast",
            "certificate_hash": "1aaf1fc7d9b54319ef7c5380b91f0425911a8a81"
          }
        },
        {
          "client_id": "852659735947-ducf9akql09d4ehq9eqdp7v0m4t9i440.apps.googleusercontent.com",
          "client_type": 3
        }
      ],
      "api_key": [
        {
          "current_key": "AIzaSyCTEW_sr2cBSFWq481PPv9zUe9E6aeQF90"
        }
      ],
      "services": {
        "analytics_service": {
          "status": 1
        },
        "appinvite_service": {
          "status": 2,
          "other_platform_oauth_client": [
            {
              "client_id": "852659735947-ducf9akql09d4ehq9eqdp7v0m4t9i440.apps.googleusercontent.com",
              "client_type": 3
            }
          ]
        },
        "ads_service": {
          "status": 2
        }
      }
    }
  ],
  "configuration_version": "1"
}